Visualisation des données
…
https://juba.github.io/tidyverse/

---

## Exemples à travers un jeu de données
- les données portent sur l'étude de manchots en Antarctique

```r
library(palmerpenguins)
data(package = 'palmerpenguins')
penguins
```

```
# A tibble: 344 × 8
   species island    bill_length_mm bill_depth_mm flipper_length_mm body_mass_g
   <fct>   <fct>              <dbl>         <dbl>             <int>       <int>
 1 Adelie  Torgersen           39.1          18.7               181        3750
 2 Adelie  Torgersen           39.5          17.4               186        3800
 3 Adelie  Torgersen           40.3          18                 195        3250
 4 Adelie  Torgersen           NA            NA                  NA          NA
 5 Adelie  Torgersen           36.7          19.3               193        3450
 6 Adelie  Torgersen           39.3          20.6               190        3650
 7 Adelie  Torgersen           38.9          17.8               181        3625
 8 Adelie  Torgersen           39.2          19.6               195        4675
 9 Adelie  Torgersen           34.1          18.1               193        3475
10 Adelie  Torgersen           42            20.2               190        4250
# ℹ 334 more rows
# ℹ 2 more variables: sex <fct>, year <int>
```
…
```
[1] FALSE
[1] TRUE
[1] TRUE
```
]
.pull-right[
- sélection de lignes/individus par condition(s) sur les valeurs des variables

```r
filter(penguins, (species != "Adelie") & (bill_l >= 39))
```

```
# A tibble: 191 × 8
   species island bill_l bill_d flip_l  mass sex     year
   <fct>   <fct>   <dbl>  <dbl>  <int> <int> <fct>  <int>
 1 Gentoo  Biscoe   46.1   13.2    211  4500 female  2007
 2 Gentoo  Biscoe   50     16.3    230  5700 male    2007
 3 Gentoo  Biscoe   48.7   14.1    210  4450 female  2007
 4 Gentoo  Biscoe   50     15.2    218  5700 male    2007
 5 Gentoo  Biscoe   47.6   14.5    215  5400 male    2007
 6 Gentoo  Biscoe   46.5   13.5    210  4550 female  2007
 7 Gentoo  Biscoe   45.4   14.6    211  4800 female  2007
 8 Gentoo  Biscoe   46.7   15.3    219  5200 male    2007
 9 Gentoo  Biscoe   43.3   13.4    209  4400 female  2007
10 Gentoo  Biscoe   46.8   15.4    215  5150 male    2007
# ℹ 181 more rows
```
]
  
---

## Les fonctions dplyr : select

.pull-left[
- sélection de colonnes/variables par nom ou condition

```r
select(penguins, species, bill_l)
```

```
# A tibble: 344 × 2
   species bill_l
   <fct>    <dbl>
 1 Adelie    39.1
 2 Adelie    39.5
 3 Adelie    40.3
 4 Adelie    NA  
 5 Adelie    36.7
 6 Adelie    39.3
 7 Adelie    38.9
 8 Adelie    39.2
 9 Adelie    34.1
10 Adelie    42  
# ℹ 334 more rows
```
…
## Les fonctions dplyr : arrange
- tri des observations suivant les valeurs des variables

```r
arrange(penguins,bill_d, desc(bill_l))
```

```
# A tibble: 344 × 8
   species island bill_l bill_d flip_l  mass sex     year
   <fct>   <fct>   <dbl>  <dbl>  <int> <int> <fct>  <int>
 1 Gentoo  Biscoe   42.9   13.1    215  5000 female  2007
 2 Gentoo  Biscoe   46.1   13.2    211  4500 female  2007
 3 Gentoo  Biscoe   44.9   13.3    213  5100 female  2008
 4 Gentoo  Biscoe   43.3   13.4    209  4400 female  2007
 5 Gentoo  Biscoe   46.5   13.5    210  4550 female  2007
 6 Gentoo  Biscoe   42     13.5    210  4150 female  2007
 7 Gentoo  Biscoe   44     13.6    208  4350 female  2008
 8 Gentoo  Biscoe   47.2   13.7    214  4925 female  2009
 9 Gentoo  Biscoe   45.5   13.7    214  4650 female  2007
10 Gentoo  Biscoe   45.3   13.7    210  4300 female  2008
# ℹ 334 more rows
```

---

## Les fonctions dplyr : mutate
- création d'une nouvelle variable qui remplace une existante ou qui vient s'ajouter au tableau

```r
mutate(penguins,
       bill_length_cm = bill_l / 10,
       Bill_length_cm = bill_l / 10)
```

```
# A tibble: 344 × 10
   species island    bill_l bill_d flip_l  mass sex     year bill_length_cm
   <fct>   <fct>      <dbl>  <dbl>  <int> <int> <fct>  <int>          <dbl>
 1 Adelie  Torgersen   39.1   18.7    181  3750 male    2007           3.91
 2 Adelie  Torgersen   39.5   17.4    186  3800 female  2007           3.95
 3 Adelie  Torgersen   40.3   18      195  3250 female  2007           4.03
 4 Adelie  Torgersen   NA     NA       NA    NA <NA>    2007          NA   
 5 Adelie  Torgersen   36.7   19.3    193  3450 female  2007           3.67
 6 Adelie  Torgersen   39.3   20.6    190  3650 male    2007           3.93
 7 Adelie  Torgersen   38.9   17.8    181  3625 female  2007           3.89
 8 Adelie  Torgersen   39.2   19.6    195  4675 male    2007           3.92
 9 Adelie  Torgersen   34.1   18.1    193  3475 <NA>    2007           3.41
10 Adelie  Torgersen   42     20.2    190  4250 <NA>    2007           4.2 
# ℹ 334 more rows
# ℹ 1 more variable: Bill_length_cm <dbl>
```
…
```r
penguins %>% 
  mutate( species = fct_recode( species, "Delo" = "Adelie" )) %>%
  select(1:3)
```

```
# A tibble: 344 × 3
   species island    bill_l
   <fct>   <fct>      <dbl>
 1 Delo    Torgersen   39.1
 2 Delo    Torgersen   39.5
 3 Delo    Torgersen   40.3
 4 Delo    Torgersen   NA  
 5 Delo    Torgersen   36.7
 6 Delo    Torgersen   39.3
 7 Delo    Torgersen   38.9
 8 Delo    Torgersen   39.2
 9 Delo    Torgersen   34.1
10 Delo    Torgersen   42  
# ℹ 334 more rows
```
…
